(footprint "bme280_i2c" (version 20211014) (generator pcbnew)
  (layer "F.Cu")
  (tedit 5A19A429)
  (descr "Through hole straight socket strip, 1x04, 2.54mm pitch, single row (from Kicad 4.0.7), script generated")
  (tags "Through hole socket strip THT 1x04 2.54mm single row")
  (attr through_hole)
  (fp_text reference "REF**" (at -10.5 -3.17) (layer "F.SilkS")
    (effects (font (size 1 1) (thickness 0.15)))
    (tstamp f2b54470-c210-48e0-af04-601bc8f080b6)
  )
  (fp_text value "bme280_i2c" (at -6.06 4.34 90) (layer "F.Fab")
    (effects (font (size 1 1) (thickness 0.15)))
    (tstamp d53e0302-0db9-4055-a945-e949bb69a01a)
  )
  (fp_text user "sda" (at 3.06 0 unlocked) (layer "B.SilkS")
    (effects (font (size 1 1) (thickness 0.15)) (justify mirror))
    (tstamp 1068d46f-139c-488e-b8ef-17bf627609f0)
  )
  (fp_text user "5V" (at 2.73 8.1 unlocked) (layer "B.SilkS")
    (effects (font (size 1 1) (thickness 0.15)) (justify mirror))
    (tstamp 79fdd5fe-518f-4068-91bd-3caaccde5cdf)
  )
  (fp_text user "scl" (at 2.93 2.52 unlocked) (layer "B.SilkS")
    (effects (font (size 1 1) (thickness 0.15)) (justify mirror))
    (tstamp b5492c54-c1e1-44e3-8f1f-9b7c1263aa7b)
  )
  (fp_text user "${VALUE}" (at -3.26 -3.04) (layer "B.SilkS")
    (effects (font (size 0.75 0.75) (thickness 0.15)) (justify mirror))
    (tstamp c696d24b-7ad3-4df9-800e-709e873a73aa)
  )
  (fp_text user "gnd" (at 3.09 5.31 unlocked) (layer "B.SilkS")
    (effects (font (size 1 1) (thickness 0.15)) (justify mirror))
    (tstamp fab6b7c9-2db1-4615-a046-3fa40fb6e3db)
  )
  (fp_text user "${VALUE}" (at -3.34 -2.96875) (layer "F.SilkS")
    (effects (font (size 0.75 0.75) (thickness 0.15)))
    (tstamp 1d4a0058-8ec3-44dc-b336-16d90444c500)
  )
  (fp_text user "gnd" (at -3.09 5.24 unlocked) (layer "F.SilkS")
    (effects (font (size 1 1) (thickness 0.15)))
    (tstamp 3061c25c-bb4a-4b8a-9aa6-2137b93b3e80)
  )
  (fp_text user "scl" (at -2.95 2.48 unlocked) (layer "F.SilkS")
    (effects (font (size 1 1) (thickness 0.15)))
    (tstamp 59ca74fc-de65-49e5-90d4-9f80d42e9697)
  )
  (fp_text user "5V" (at -2.57 8 unlocked) (layer "F.SilkS")
    (effects (font (size 1 1) (thickness 0.15)))
    (tstamp 62fe8e08-0b0b-4c5f-a4b4-db2bc0e9231e)
  )
  (fp_text user "sda" (at -2.84 -0.07 unlocked) (layer "F.SilkS")
    (effects (font (size 1 1) (thickness 0.15)))
    (tstamp 98b25398-52a7-442e-b32d-b7e466453c0d)
  )
  (fp_rect (start -12.18 -2.14) (end 1.69 9.75) (layer "B.SilkS") (width 0.12) (fill none) (tstamp b17d7de0-c08b-4497-a9af-6a903cb9e9cc))
  (fp_poly (pts
      (xy -11.900963 7.093191)
      (xy -11.709332 7.672684)
      (xy -11.371129 8.20417)
      (xy -11.201775 8.390431)
      (xy -10.707281 8.783579)
      (xy -10.179556 9.027046)
      (xy -9.636529 9.13257)
      (xy -9.09613 9.111889)
      (xy -8.576289 8.976741)
      (xy -8.094936 8.738866)
      (xy -7.67 8.41)
      (xy -7.319411 8.001883)
      (xy -7.061098 7.526253)
      (xy -6.912992 6.994848)
      (xy -6.893023 6.419406)
      (xy -7.019119 5.811666)
      (xy -7.065325 5.682365)
      (xy -7.353308 5.157731)
      (xy -7.768045 4.711196)
      (xy -8.276232 4.365591)
      (xy -8.844562 4.143747)
      (xy -9.419743 4.068399)
      (xy -9.419743 4.624439)
      (xy -8.879042 4.679185)
      (xy -8.429745 4.853475)
      (xy -8.093918 5.101852)
      (xy -7.911092 5.268831)
      (xy -8.1107 5.562968)
      (xy -8.25385 5.844407)
      (xy -8.354743 6.16738)
      (xy -8.366639 6.232753)
      (xy -8.386829 6.766087)
      (xy -8.294026 7.263934)
      (xy -8.1107 7.653831)
      (xy -7.911092 7.947968)
      (xy -8.093918 8.114947)
      (xy -8.515929 8.395271)
      (xy -9.014586 8.560724)
      (xy -9.541102 8.604757)
      (xy -10.04669 8.520823)
      (xy -10.308743 8.412189)
      (xy -10.800233 8.068545)
      (xy -11.147416 7.636767)
      (xy -11.348562 7.11971)
      (xy -11.403426 6.6084)
      (xy -11.327811 6.021439)
      (xy -11.112328 5.516327)
      (xy -10.773075 5.109161)
      (xy -10.326148 4.816042)
      (xy -9.787643 4.653068)
      (xy -9.419743 4.624439)
      (xy -9.419743 4.068399)
      (xy -9.419744 4.068399)
      (xy -10.00177 4.147105)
      (xy -10.571593 4.368619)
      (xy -11.077719 4.711038)
      (xy -11.201775 4.826368)
      (xy -11.596429 5.332279)
      (xy -11.844512 5.896428)
      (xy -11.946023 6.492252)
    ) (layer "B.SilkS") (width 0) (fill solid) (tstamp 0c34f939-20b7-4417-a5e5-d090462af187))
  (fp_poly (pts
      (xy -11.119296 3.182794)
      (xy -11.028537 3.319595)
      (xy -10.849255 3.409304)
      (xy -10.558528 3.460825)
      (xy -10.133432 3.483066)
      (xy -9.867789 3.485976)
      (xy -9.393305 3.494205)
      (xy -9.061881 3.517735)
      (xy -8.847697 3.559465)
      (xy -8.73644 3.612976)
      (xy -8.469137 3.721638)
      (xy -8.179203 3.697138)
      (xy -7.908656 3.562817)
      (xy -7.69952 3.342017)
      (xy -7.593814 3.058082)
      (xy -7.588455 2.975284)
      (xy -7.664013 2.683386)
      (xy -7.835943 2.460771)
      (xy -8.125367 2.264227)
      (xy -8.430931 2.216852)
      (xy -8.717095 2.323507)
      (xy -8.73644 2.337591)
      (xy -8.867773 2.397013)
      (xy -9.092456 2.436091)
      (xy -9.436327 2.45769)
      (xy -9.8825 2.464591)
      (xy -10.375924 2.47489)
      (xy -10.541422 2.491199)
      (xy -10.541422 2.721284)
      (xy -10.423748 2.766395)
      (xy -10.383386 2.92756)
      (xy -10.382455 2.975284)
      (xy -10.410689 3.163305)
      (xy -10.511554 3.227797)
      (xy -10.541422 3.229284)
      (xy -10.728491 3.16779)
      (xy -10.805789 3.102284)
      (xy -10.851847 2.944572)
      (xy -10.76809 2.801523)
      (xy -10.590047 2.72434)
      (xy -10.541422 2.721284)
      (xy -10.541422 2.491199)
      (xy -10.724329 2.509223)
      (xy -10.951434 2.577465)
      (xy -11.080961 2.689494)
      (xy -11.136629 2.855183)
      (xy -11.144456 2.989995)
    ) (layer "B.SilkS") (width 0) (fill solid) (tstamp 1a9ea05e-2650-421d-b1d6-913e7fc03564))
  (fp_poly (pts
      (xy -10.900082 7.275435)
      (xy -10.746542 7.341284)
      (xy -10.465922 7.298322)
      (xy -10.241731 7.222759)
      (xy -9.888815 7.120235)
      (xy -9.583438 7.089956)
      (xy -9.522237 7.095453)
      (xy -9.246744 7.070014)
      (xy -9.039048 6.932235)
      (xy -8.921349 6.723764)
      (xy -8.915845 6.486253)
      (xy -9.044736 6.261354)
      (xy -9.066577 6.240522)
      (xy -9.31831 6.111357)
      (xy -9.585472 6.135717)
      (xy -9.824323 6.308468)
      (xy -9.843396 6.331702)
      (xy -10.028015 6.496724)
      (xy -10.298201 6.662337)
      (xy -10.463375 6.738681)
      (xy -10.749706 6.876499)
      (xy -10.896142 7.011118)
      (xy -10.928515 7.100423)
    ) (layer "B.SilkS") (width 0) (fill solid) (tstamp 31c0f853-07a6-406e-83b4-0d24649b66eb))
  (fp_poly (pts
      (xy -10.081179 8.051716)
      (xy -9.928037 8.10268)
      (xy -9.774773 8.052078)
      (xy -9.689076 7.899912)
      (xy -9.688972 7.899188)
      (xy -9.719725 7.720592)
      (xy -9.794805 7.657296)
      (xy -10.004416 7.638451)
      (xy -10.141123 7.739882)
      (xy -10.166515 7.899188)
    ) (layer "B.SilkS") (width 0) (fill solid) (tstamp 61e37dc6-4da0-475e-8ec3-024ae97d8d45))
  (fp_poly (pts
      (xy -10.081179 5.511716)
      (xy -9.928037 5.56268)
      (xy -9.774773 5.512078)
      (xy -9.689076 5.359912)
      (xy -9.688972 5.359188)
      (xy -9.719725 5.180592)
      (xy -9.794805 5.117296)
      (xy -10.004416 5.098451)
      (xy -10.141123 5.199882)
      (xy -10.166515 5.359188)
    ) (layer "B.SilkS") (width 0) (fill solid) (tstamp 943bed88-0cc0-488b-af4b-2de7d087aa7e))
  (fp_poly (pts
      (xy -10.855425 6.272514)
      (xy -10.689743 6.312066)
      (xy -10.515329 6.265533)
      (xy -10.450972 6.121188)
      (xy -10.481725 5.942592)
      (xy -10.556805 5.879296)
      (xy -10.766416 5.860451)
      (xy -10.903123 5.961882)
      (xy -10.928515 6.121188)
    ) (layer "B.SilkS") (width 0) (fill solid) (tstamp f2456551-54b9-4cb8-bced-27172f67e17b))
  (fp_poly (pts
      (xy -11.373681 0.291089)
      (xy -11.192977 0.465787)
      (xy -10.929605 0.682031)
      (xy -10.614494 0.916474)
      (xy -10.278573 1.145769)
      (xy -9.952769 1.34657)
      (xy -9.755099 1.453761)
      (xy -9.21206 1.652869)
      (xy -8.704396 1.693506)
      (xy -8.245512 1.579513)
      (xy -7.848809 1.314732)
      (xy -7.527691 0.903003)
      (xy -7.471665 0.799321)
      (xy -7.362266 0.434472)
      (xy -7.349866 0.019271)
      (xy -7.434216 -0.363218)
      (xy -7.475442 -0.453716)
      (xy -7.787876 -0.892422)
      (xy -8.17618 -1.183294)
      (xy -8.627537 -1.322747)
      (xy -8.835473 -1.316301)
      (xy -8.835473 -0.834716)
      (xy -8.536613 -0.759528)
      (xy -8.24543 -0.563789)
      (xy -8.00638 -0.292239)
      (xy -7.86392 0.010381)
      (xy -7.842772 0.164321)
      (xy -7.881496 0.377794)
      (xy -7.973566 0.612566)
      (xy -8.158556 0.851518)
      (xy -8.420563 1.055143)
      (xy -8.695224 1.178924)
      (xy -8.818511 1.196967)
      (xy -9.000181 1.155584)
      (xy -9.278734 1.046226)
      (xy -9.608132 0.89173)
      (xy -9.942336 0.714936)
      (xy -10.235307 0.538681)
      (xy -10.424789 0.400153)
      (xy -10.678789 0.181284)
      (xy -10.424789 -0.037586)
      (xy -10.215123 -0.188568)
      (xy -9.922288 -0.362801)
      (xy -9.591898 -0.537405)
      (xy -9.26957 -0.689501)
      (xy -9.000919 -0.796211)
      (xy -8.835473 -0.834716)
      (xy -8.835473 -1.316301)
      (xy -9.129129 -1.307197)
      (xy -9.668138 -1.133059)
      (xy -9.755099 -1.091194)
      (xy -10.056747 -0.922637)
      (xy -10.389284 -0.709904)
      (xy -10.721782 -0.476344)
      (xy -11.023313 -0.245302)
      (xy -11.262947 -0.040127)
      (xy -11.409757 0.115835)
      (xy -11.440789 0.181284)
    ) (layer "B.SilkS") (width 0) (fill solid) (tstamp ff5fc2f5-18c9-4ad1-a612-e8ea2c3516e8))
  (fp_line (start -1.34 -1.32) (end 1.33 -1.33) (layer "F.SilkS") (width 0.12) (tstamp 0b0caae4-3516-4e1d-8c34-db4d96d41b69))
  (fp_line (start 1.33 -1.33) (end 1.33 0) (layer "F.SilkS") (width 0.12) (tstamp 1bbfb789-b903-4d94-a84c-27c31d6ddb87))
  (fp_line (start -1.34 -1.32) (end -1.33 8.92) (layer "F.SilkS") (width 0.12) (tstamp 257cdb19-4025-4fa7-9a74-b2d22e8ba58d))
  (fp_line (start 1.33 0) (end 1.33 8.95) (layer "F.SilkS") (width 0.12) (tstamp c8cf58ba-8863-4630-be56-78a2eb8d55bd))
  (fp_line (start -1.33 8.95) (end 1.33 8.95) (layer "F.SilkS") (width 0.12) (tstamp d1e4446c-7a25-4f49-846a-5ec9b3ac753a))
  (fp_rect (start -12.18 -2.13) (end 1.69 9.74) (layer "F.SilkS") (width 0.12) (fill none) (tstamp 710e0ad5-f236-471f-8c72-1081dac8ff3f))
  (fp_poly (pts
      (xy -7.338094 0.240658)
      (xy -7.518798 0.415356)
      (xy -7.78217 0.6316)
      (xy -8.097281 0.866043)
      (xy -8.433202 1.095338)
      (xy -8.759006 1.296139)
      (xy -8.956676 1.40333)
      (xy -9.499715 1.602438)
      (xy -10.007379 1.643075)
      (xy -10.466263 1.529082)
      (xy -10.862966 1.264301)
      (xy -11.184084 0.852572)
      (xy -11.24011 0.74889)
      (xy -11.349509 0.384041)
      (xy -11.361909 -0.03116)
      (xy -11.277559 -0.413649)
      (xy -11.236333 -0.504147)
      (xy -10.923899 -0.942853)
      (xy -10.535595 -1.233725)
      (xy -10.084238 -1.373178)
      (xy -9.876302 -1.366732)
      (xy -9.876302 -0.885147)
      (xy -10.175162 -0.809959)
      (xy -10.466345 -0.61422)
      (xy -10.705395 -0.34267)
      (xy -10.847855 -0.04005)
      (xy -10.869003 0.11389)
      (xy -10.830279 0.327363)
      (xy -10.738209 0.562135)
      (xy -10.553219 0.801087)
      (xy -10.291212 1.004712)
      (xy -10.016551 1.128493)
      (xy -9.893264 1.146536)
      (xy -9.711594 1.105153)
      (xy -9.433041 0.995795)
      (xy -9.103643 0.841299)
      (xy -8.769439 0.664505)
      (xy -8.476468 0.48825)
      (xy -8.286986 0.349722)
      (xy -8.032986 0.130853)
      (xy -8.286986 -0.088017)
      (xy -8.496652 -0.238999)
      (xy -8.789487 -0.413232)
      (xy -9.119877 -0.587836)
      (xy -9.442205 -0.739932)
      (xy -9.710856 -0.846642)
      (xy -9.876302 -0.885147)
      (xy -9.876302 -1.366732)
      (xy -9.582646 -1.357628)
      (xy -9.043637 -1.18349)
      (xy -8.956676 -1.141625)
      (xy -8.655028 -0.973068)
      (xy -8.322491 -0.760335)
      (xy -7.989993 -0.526775)
      (xy -7.688462 -0.295733)
      (xy -7.448828 -0.090558)
      (xy -7.302018 0.065404)
      (xy -7.270986 0.130853)
    ) (layer "F.SilkS") (width 0) (fill solid) (tstamp 431e63ff-ef77-4730-a555-bf173093137b))
  (fp_poly (pts
      (xy -8.630596 5.461285)
      (xy -8.783738 5.512249)
      (xy -8.937002 5.461647)
      (xy -9.022699 5.309481)
      (xy -9.022803 5.308757)
      (xy -8.99205 5.130161)
      (xy -8.91697 5.066865)
      (xy -8.707359 5.04802)
      (xy -8.570652 5.149451)
      (xy -8.54526 5.308757)
    ) (layer "F.SilkS") (width 0) (fill solid) (tstamp 637dae40-dce4-4e20-b361-4f88046d9f03))
  (fp_poly (pts
      (xy -7.85635 6.222083)
      (xy -8.022032 6.261635)
      (xy -8.196446 6.215102)
      (xy -8.260803 6.070757)
      (xy -8.23005 5.892161)
      (xy -8.15497 5.828865)
      (xy -7.945359 5.81002)
      (xy -7.808652 5.911451)
      (xy -7.78326 6.070757)
    ) (layer "F.SilkS") (width 0) (fill solid) (tstamp 7bd5f639-154d-467b-b4f9-a9e621cfaa9c))
  (fp_poly (pts
      (xy -7.811693 7.225004)
      (xy -7.965233 7.290853)
      (xy -8.245853 7.247891)
      (xy -8.470044 7.172328)
      (xy -8.82296 7.069804)
      (xy -9.128337 7.039525)
      (xy -9.189538 7.045022)
      (xy -9.465031 7.019583)
      (xy -9.672727 6.881804)
      (xy -9.790426 6.673333)
      (xy -9.79593 6.435822)
      (xy -9.667039 6.210923)
      (xy -9.645198 6.190091)
      (xy -9.393465 6.060926)
      (xy -9.126303 6.085286)
      (xy -8.887452 6.258037)
      (xy -8.868379 6.281271)
      (xy -8.68376 6.446293)
      (xy -8.413574 6.611906)
      (xy -8.2484 6.68825)
      (xy -7.962069 6.826068)
      (xy -7.815633 6.960687)
      (xy -7.78326 7.049992)
    ) (layer "F.SilkS") (width 0) (fill solid) (tstamp b604f229-8c6d-40be-9b6c-814ca599baba))
  (fp_poly (pts
      (xy -8.630596 8.001285)
      (xy -8.783738 8.052249)
      (xy -8.937002 8.001647)
      (xy -9.022699 7.849481)
      (xy -9.022803 7.848757)
      (xy -8.99205 7.670161)
      (xy -8.91697 7.606865)
      (xy -8.707359 7.58802)
      (xy -8.570652 7.689451)
      (xy -8.54526 7.848757)
    ) (layer "F.SilkS") (width 0) (fill solid) (tstamp c93356dd-52e1-465a-a9c6-a9f05455ce7a))
  (fp_poly (pts
      (xy -6.810812 7.04276)
      (xy -7.002443 7.622253)
      (xy -7.340646 8.153739)
      (xy -7.51 8.34)
      (xy -8.004494 8.733148)
      (xy -8.532219 8.976615)
      (xy -9.075246 9.082139)
      (xy -9.615645 9.061458)
      (xy -10.135486 8.92631)
      (xy -10.616839 8.688435)
      (xy -11.041775 8.359569)
      (xy -11.392364 7.951452)
      (xy -11.650677 7.475822)
      (xy -11.798783 6.944417)
      (xy -11.818752 6.368975)
      (xy -11.692656 5.761235)
      (xy -11.64645 5.631934)
      (xy -11.358467 5.1073)
      (xy -10.94373 4.660765)
      (xy -10.435543 4.31516)
      (xy -9.867213 4.093316)
      (xy -9.292032 4.017968)
      (xy -9.292032 4.574008)
      (xy -9.832733 4.628754)
      (xy -10.28203 4.803044)
      (xy -10.617857 5.051421)
      (xy -10.800683 5.2184)
      (xy -10.601075 5.512537)
      (xy -10.457925 5.793976)
      (xy -10.357032 6.116949)
      (xy -10.345136 6.182322)
      (xy -10.324946 6.715656)
      (xy -10.417749 7.213503)
      (xy -10.601075 7.6034)
      (xy -10.800683 7.897537)
      (xy -10.617857 8.064516)
      (xy -10.195846 8.34484)
      (xy -9.697189 8.510293)
      (xy -9.170673 8.554326)
      (xy -8.665085 8.470392)
      (xy -8.403032 8.361758)
      (xy -7.911542 8.018114)
      (xy -7.564359 7.586336)
      (xy -7.363213 7.069279)
      (xy -7.308349 6.557969)
      (xy -7.383964 5.971008)
      (xy -7.599447 5.465896)
      (xy -7.9387 5.05873)
      (xy -8.385627 4.765611)
      (xy -8.924132 4.602637)
      (xy -9.292032 4.574008)
      (xy -9.292032 4.017968)
      (xy -9.292031 4.017968)
      (xy -8.710005 4.096674)
      (xy -8.140182 4.318188)
      (xy -7.634056 4.660607)
      (xy -7.51 4.775937)
      (xy -7.115346 5.281848)
      (xy -6.867263 5.845997)
      (xy -6.765752 6.441821)
    ) (layer "F.SilkS") (width 0) (fill solid) (tstamp dca52dc3-57f5-4e59-a3a7-a09a879a5080))
  (fp_poly (pts
      (xy -7.592479 3.132363)
      (xy -7.683238 3.269164)
      (xy -7.86252 3.358873)
      (xy -8.153247 3.410394)
      (xy -8.578343 3.432635)
      (xy -8.843986 3.435545)
      (xy -9.31847 3.443774)
      (xy -9.649894 3.467304)
      (xy -9.864078 3.509034)
      (xy -9.975335 3.562545)
      (xy -10.242638 3.671207)
      (xy -10.532572 3.646707)
      (xy -10.803119 3.512386)
      (xy -11.012255 3.291586)
      (xy -11.117961 3.007651)
      (xy -11.12332 2.924853)
      (xy -11.047762 2.632955)
      (xy -10.875832 2.41034)
      (xy -10.586408 2.213796)
      (xy -10.280844 2.166421)
      (xy -9.99468 2.273076)
      (xy -9.975335 2.28716)
      (xy -9.844002 2.346582)
      (xy -9.619319 2.38566)
      (xy -9.275448 2.407259)
      (xy -8.829275 2.41416)
      (xy -8.335851 2.424459)
      (xy -8.170353 2.440768)
      (xy -8.170353 2.670853)
      (xy -8.288027 2.715964)
      (xy -8.328389 2.877129)
      (xy -8.32932 2.924853)
      (xy -8.301086 3.112874)
      (xy -8.200221 3.177366)
      (xy -8.170353 3.178853)
      (xy -7.983284 3.117359)
      (xy -7.905986 3.051853)
      (xy -7.859928 2.894141)
      (xy -7.943685 2.751092)
      (xy -8.121728 2.673909)
      (xy -8.170353 2.670853)
      (xy -8.170353 2.440768)
      (xy -7.987446 2.458792)
      (xy -7.760341 2.527034)
      (xy -7.630814 2.639063)
      (xy -7.575146 2.804752)
      (xy -7.567319 2.939564)
    ) (layer "F.SilkS") (width 0) (fill solid) (tstamp e9cf24fc-0bd1-494b-adba-4ed086e9bf82))
  (fp_line (start -12.25 9.8) (end -12.25 -2.2) (layer "F.CrtYd") (width 0.05) (tstamp 59f28584-bc37-4ee4-9d8d-83313332dd22))
  (fp_line (start 1.75 -2.2) (end 1.75 9.8) (layer "F.CrtYd") (width 0.05) (tstamp 63d51db6-ac13-4c8e-a47e-37785e50651f))
  (fp_line (start -12.25 -2.2) (end 1.75 -2.2) (layer "F.CrtYd") (width 0.05) (tstamp 7fbbaabf-f9c9-4c65-84ac-eb48bbb94306))
  (fp_line (start 1.75 9.8) (end -12.25 9.8) (layer "F.CrtYd") (width 0.05) (tstamp f7f34377-dc94-4e23-abc2-c9ec3682eb39))
  (fp_line (start 1.27 -0.635) (end 1.27 8.89) (layer "F.Fab") (width 0.1) (tstamp 71b610dc-6482-4490-9131-865e7f856685))
  (fp_line (start -1.27 8.89) (end -1.27 -1.27) (layer "F.Fab") (width 0.1) (tstamp 7949220b-fca3-49a1-9b4c-fac10faf8d69))
  (fp_line (start -1.27 -1.27) (end 0.635 -1.27) (layer "F.Fab") (width 0.1) (tstamp 7c45869b-ce5d-4b65-9c7c-2e902cfe9d0a))
  (fp_line (start 1.27 8.89) (end -1.27 8.89) (layer "F.Fab") (width 0.1) (tstamp f97fc5e6-8b3e-4567-9586-3ebba4b86f3f))
  (pad "1" thru_hole oval (at 0 7.62) (size 1.7 1.7) (drill 1) (layers *.Cu *.Mask) (tstamp 1f92a149-11c2-4b9c-9f4d-d30f134bf31d))
  (pad "2" thru_hole roundrect (at 0 5.08) (size 1.7 1.7) (drill 1) (layers *.Cu *.Mask) (roundrect_rratio 0.25) (tstamp 4eed0372-d89a-4fec-bea1-b5660297ac7d))
  (pad "3" thru_hole oval (at 0 2.54) (size 1.7 1.7) (drill 1) (layers *.Cu *.Mask) (tstamp 21d635ce-212a-436e-8900-6f95ebc71c55))
  (pad "4" thru_hole oval (at 0 0) (size 1.7 1.7) (drill 1) (layers *.Cu *.Mask) (tstamp 2e08a263-3e07-43ef-b8ac-536cb45b6165))
  (model "${KICAD6_3DMODEL_DIR}/Connector_PinSocket_2.54mm.3dshapes/PinSocket_1x04_P2.54mm_Vertical.wrl"
    (offset (xyz 0 0 0))
    (scale (xyz 1 1 1))
    (rotate (xyz 0 0 0))
  )
  (model "${KIPRJMOD}/3dmodels/GY-BME280.STEP"
    (offset (xyz 1.5 -3.5 9.5))
    (scale (xyz 1 1 1))
    (rotate (xyz 0 0 -90))
  )
  (model "${KICAD6_3DMODEL_DIR}/Connector_PinHeader_2.54mm.3dshapes/PinHeader_1x04_P2.54mm_Vertical.wrl"
    (offset (xyz 0 0 9.5))
    (scale (xyz 1 1 1))
    (rotate (xyz 0 -180 0))
  )
)
